%YAML 1.1
%TAG !u! tag:unity3d.com,2011:
--- !u!1001 &6024349761313351911
PrefabInstance:
  m_ObjectHideFlags: 0
  serializedVersion: 2
  m_Modification:
    serializedVersion: 3
    m_TransformParent: {fileID: 0}
    m_Modifications:
    - target: {fileID: 2247755549915774491, guid: 29e6e42ec5c80a340b997a1184a3d818, type: 3}
      propertyPath: m_Name
      value: Comet Variant
      objectReference: {fileID: 0}
    - target: {fileID: 2517228469098477776, guid: 29e6e42ec5c80a340b997a1184a3d818, type: 3}
      propertyPath: destroyDistance
      value: 15
      objectReference: {fileID: 0}
    - target: {fileID: 5350225387495950761, guid: 29e6e42ec5c80a340b997a1184a3d818, type: 3}
      propertyPath: m_LocalPosition.x
      value: -9.79
      objectReference: {fileID: 0}
    - target: {fileID: 5350225387495950761, guid: 29e6e42ec5c80a340b997a1184a3d818, type: 3}
      propertyPath: m_LocalPosition.y
      value: 0
      objectReference: {fileID: 0}
    - target: {fileID: 5350225387495950761, guid: 29e6e42ec5c80a340b997a1184a3d818, type: 3}
      propertyPath: m_LocalPosition.z
      value: -1.93
      objectReference: {fileID: 0}
    - target: {fileID: 5350225387495950761, guid: 29e6e42ec5c80a340b997a1184a3d818, type: 3}
      propertyPath: m_LocalRotation.w
      value: 0.45496225
      objectReference: {fileID: 0}
    - target: {fileID: 5350225387495950761, guid: 29e6e42ec5c80a340b997a1184a3d818, type: 3}
      propertyPath: m_LocalRotation.x
      value: -0
      objectReference: {fileID: 0}
    - target: {fileID: 5350225387495950761, guid: 29e6e42ec5c80a340b997a1184a3d818, type: 3}
      propertyPath: m_LocalRotation.y
      value: 0.89051074
      objectReference: {fileID: 0}
    - target: {fileID: 5350225387495950761, guid: 29e6e42ec5c80a340b997a1184a3d818, type: 3}
      propertyPath: m_LocalRotation.z
      value: -0
      objectReference: {fileID: 0}
    - target: {fileID: 5350225387495950761, guid: 29e6e42ec5c80a340b997a1184a3d818, type: 3}
      propertyPath: m_LocalEulerAnglesHint.x
      value: 0
      objectReference: {fileID: 0}
    - target: {fileID: 5350225387495950761, guid: 29e6e42ec5c80a340b997a1184a3d818, type: 3}
      propertyPath: m_LocalEulerAnglesHint.y
      value: 125.875
      objectReference: {fileID: 0}
    - target: {fileID: 5350225387495950761, guid: 29e6e42ec5c80a340b997a1184a3d818, type: 3}
      propertyPath: m_LocalEulerAnglesHint.z
      value: 0
      objectReference: {fileID: 0}
    m_RemovedComponents: []
    m_RemovedGameObjects: []
    m_AddedGameObjects: []
    m_AddedComponents: []
  m_SourcePrefab: {fileID: 100100000, guid: 29e6e42ec5c80a340b997a1184a3d818, type: 3}
