%YAML 1.1
%TAG !u! tag:unity3d.com,2011:
--- !u!1001 &1462812464432617532
PrefabInstance:
  m_ObjectHideFlags: 0
  serializedVersion: 2
  m_Modification:
    serializedVersion: 3
    m_TransformParent: {fileID: 0}
    m_Modifications:
    - target: {fileID: 2247755549915774491, guid: 29e6e42ec5c80a340b997a1184a3d818, type: 3}
      propertyPath: m_Name
      value: Comet (2) Variant
      objectReference: {fileID: 0}
    - target: {fileID: 2517228469098477776, guid: 29e6e42ec5c80a340b997a1184a3d818, type: 3}
      propertyPath: destroyDistance
      value: 15
      objectReference: {fileID: 0}
    - target: {fileID: 5350225387495950761, guid: 29e6e42ec5c80a340b997a1184a3d818, type: 3}
      propertyPath: m_LocalPosition.x
      value: -4.99
      objectReference: {fileID: 0}
    - target: {fileID: 5350225387495950761, guid: 29e6e42ec5c80a340b997a1184a3d818, type: 3}
      propertyPath: m_LocalPosition.y
      value: 0
      objectReference: {fileID: 0}
    - target: {fileID: 5350225387495950761, guid: 29e6e42ec5c80a340b997a1184a3d818, type: 3}
      propertyPath: m_LocalPosition.z
      value: -4.01
      objectReference: {fileID: 0}
    - target: {fileID: 5350225387495950761, guid: 29e6e42ec5c80a340b997a1184a3d818, type: 3}
      propertyPath: m_LocalRotation.w
      value: 0.35696486
      objectReference: {fileID: 0}
    - target: {fileID: 5350225387495950761, guid: 29e6e42ec5c80a340b997a1184a3d818, type: 3}
      propertyPath: m_LocalRotation.x
      value: -0.0015811586
      objectReference: {fileID: 0}
    - target: {fileID: 5350225387495950761, guid: 29e6e42ec5c80a340b997a1184a3d818, type: 3}
      propertyPath: m_LocalRotation.y
      value: 0.9341101
      objectReference: {fileID: 0}
    - target: {fileID: 5350225387495950761, guid: 29e6e42ec5c80a340b997a1184a3d818, type: 3}
      propertyPath: m_LocalRotation.z
      value: -0.0034651952
      objectReference: {fileID: 0}
    - target: {fileID: 5350225387495950761, guid: 29e6e42ec5c80a340b997a1184a3d818, type: 3}
      propertyPath: m_LocalEulerAnglesHint.x
      value: 0.306
      objectReference: {fileID: 0}
    - target: {fileID: 5350225387495950761, guid: 29e6e42ec5c80a340b997a1184a3d818, type: 3}
      propertyPath: m_LocalEulerAnglesHint.y
      value: 138.171
      objectReference: {fileID: 0}
    - target: {fileID: 5350225387495950761, guid: 29e6e42ec5c80a340b997a1184a3d818, type: 3}
      propertyPath: m_LocalEulerAnglesHint.z
      value: -0.311
      objectReference: {fileID: 0}
    m_RemovedComponents: []
    m_RemovedGameObjects: []
    m_AddedGameObjects: []
    m_AddedComponents: []
  m_SourcePrefab: {fileID: 100100000, guid: 29e6e42ec5c80a340b997a1184a3d818, type: 3}
